%YAML 1.1
%TAG !u! tag:unity3d.com,2011:
--- !u!114 &11400000
MonoBehaviour:
  m_ObjectHideFlags: 0
  m_CorrespondingSourceObject: {fileID: 0}
  m_PrefabInternal: {fileID: 0}
  m_GameObject: {fileID: 0}
  m_Enabled: 1
  m_EditorHideFlags: 0
  m_Script: {fileID: 11500000, guid: 8ac76e05132e14cecb2ffb9127c2b735, type: 3}
  m_Name: InAppConfigScriptableAsset
  m_EditorClassIdentifier: 
  consumableProductsList:
  - GPlayIOSProductID: get_50000_value_coins
    MacStoreProductID: get_50000_value_coins_mac
    TizenProductID: 000000596586
    MoolahAppStoreProductID: com.ff
    isEnabled: 1
    smallDescription: Get 50.000$  Value Coins
    valueInSimulateDollars: 50000
    playerPrefDefValue: MPGeneralPlayerMoney
  - GPlayIOSProductID: get_100000_value_coins
    MacStoreProductID: get_100000_value_coins_mac
    TizenProductID: 000000596588
    MoolahAppStoreProductID: com.ee
    isEnabled: 1
    smallDescription: Get 100.000$  Value Coins
    valueInSimulateDollars: 100000
    playerPrefDefValue: MPGeneralPlayerMoney
  notConsumableProductsList: []
  gameMoneysettings:
    playerInitialMoney: 20000
    playerMINMoneyToRefund: 1000
    playerMINMoneyToStartPlayGame: 5000
  useInAppPurchase: 1
  useUnityAdvertising: 1
  useUnityAdvertisingRewardToGetMoney: 1
  moneyToAddOnRewardedVideo: 500
  UnityServiceAdvertisingAndroidID: 1397958
  UnityServiceAdvertisingIOSID: 1397959
